module github.com/sapientcoffee/genai-for-developers/outer-loop-cli-go/src

go 1.21.5

require (
	github.com/kyokomi/emoji v2.2.4+incompatible
	github.com/olekukonko/tablewriter v0.0.5
	github.com/spf13/cobra v1.8.0
	golang.org/x/oauth2 v0.19.0
	google.golang.org/api v0.172.0
)

require (
	cloud.google.com/go/compute v1.23.4 // indirect
	cloud.google.com/go/compute/metadata v0.2.3 // indirect
	github.com/felixge/httpsnoop v1.0.4 // indirect
	github.com/go-logr/logr v1.4.1 // indirect
	github.com/go-logr/stdr v1.2.2 // indirect
	github.com/golang/groupcache v0.0.0-20210331224755-41bb18bfe9da // indirect
	github.com/golang/protobuf v1.5.3 // indirect
	github.com/google/s2a-go v0.1.7 // indirect
	github.com/google/uuid v1.6.0 // indirect
	github.com/googleapis/enterprise-certificate-proxy v0.3.2 // indirect
	github.com/googleapis/gax-go/v2 v2.12.3 // indirect
	github.com/inconshreveable/mousetrap v1.1.0 // indirect
	github.com/mattn/go-runewidth v0.0.9 // indirect
	github.com/spf13/pflag v1.0.5 // indirect
	go.opencensus.io v0.24.0 // indirect
	go.opentelemetry.io/contrib/instrumentation/net/http/otelhttp v0.49.0 // indirect
	go.opentelemetry.io/otel v1.24.0 // indirect
	go.opentelemetry.io/otel/metric v1.24.0 // indirect
	go.opentelemetry.io/otel/trace v1.24.0 // indirect
	golang.org/x/crypto v0.21.0 // indirect
	golang.org/x/net v0.22.0 // indirect
	golang.org/x/sys v0.18.0 // indirect
	golang.org/x/text v0.14.0 // indirect
	google.golang.org/genproto/googleapis/rpc v0.0.0-20240318140521-94a12d6c2237 // indirect
	google.golang.org/grpc v1.62.1 // indirect
	google.golang.org/protobuf v1.33.0 // indirect
)
